[
  {"name": "january", "value": 1},
  {"name": "february", "value": 2},
  {"name": "march", "value": 3},
  {"name": "april", "value": 4},
  {"name": "may", "value": 5},
  {"name": "june", "value": 6},
  {"name": "july", "value": 7},
  {"name": "august", "value": 8},
  {"name": "september", "value": 9},
  {"name": "october", "value": 10},
  {"name": "november", "value": 11},
  {"name": "december", "value": 12}
]